<svg width="18" height="10" viewBox="0 0 18 10" fill="none" xmlns="http://www.w3.org/2000/svg">
<path d="M11.7931 1.00047L4.63338 8.87898L1.142 5.53966" stroke="#EF5DA8" stroke-linecap="round" stroke-linejoin="round"/>
<path d="M16.74 1.00006L9.57994 8.87898L6.98382 6.42009" stroke="#EF5DA8" stroke-linecap="round" stroke-linejoin="round"/>
</svg>
